\relax 
\citation{BandarraFilho2011}
\citation{BandarraFilho2011}
\citation{CavaliniJunior2015}
\citation{Santos2013a}
\citation{Santos2013b}
\citation{MLA04}
\citation{CavaliniJunior2013}
\citation{McConnell.Varoto.2008}
\select@language{english}
\@writefile{toc}{\select@language{english}}
\@writefile{lof}{\select@language{english}}
\@writefile{lot}{\select@language{english}}
\@writefile{toc}{\contentsline {section}{\numberline {1.\hskip -1ex}INTRODUCTION}{1}}
\@writefile{toc}{\contentsline {section}{\numberline {2.\hskip -1ex}TEXT FORMAT}{1}}
\@writefile{toc}{\contentsline {subsection}{\numberline {2.\hskip -1ex\hskip 1.1ex 1\hskip -1ex}Section titles and subtitles}{2}}
\@writefile{toc}{\contentsline {subsection}{\numberline {2.\hskip -1ex\hskip 1.1ex 2\hskip -1ex}Mathematical equations}{2}}
\newlabel{eq1}{{1}{2}}
\newlabel{eq2}{{2}{2}}
\@writefile{toc}{\contentsline {subsection}{\numberline {2.\hskip -1ex\hskip 1.1ex 3\hskip -1ex}Figures and tables}{2}}
\@writefile{lof}{\contentsline {figure}{\numberline {1}{\ignorespaces United States crude oil imports from Norway versus number of drivers killed in collision with railway train. Available from: http://tylervigen.com/spurious-correlations}}{2}}
\newlabel{fig1}{{1}{2}}
\bibstyle{abcm}
\bibdata{bibfile}
\bibcite{BandarraFilho2011}{{1}{2011}{{{Bandarra Filho} and Jabardo}}{{}}}
\bibcite{CavaliniJunior2013}{{2}{2013}{{Cavalini Junior}}{{}}}
\bibcite{CavaliniJunior2015}{{3}{2015}{{{Cavalini Junior} \emph  {et~al.}}}{{{Cavalini Junior}, Lara-Molina, Sales, Koroishi and Steffen}}}
\bibcite{McConnell.Varoto.2008}{{4}{2008}{{McConnell and Varoto}}{{}}}
\bibcite{MLA04}{{5}{2004}{{MLA}}{{}}}
\bibcite{Santos2013a}{{6}{2013{a}}{{Santos \emph  {et~al.}}}{{Santos, Furtado, Frey, Naccache and {de Souza Mendes}}}}
\bibcite{Santos2013b}{{7}{2013{b}}{{Santos \emph  {et~al.}}}{{Santos, Furtado, Frey, Naccache and {de Souza Mendes}}}}
\@writefile{lot}{\contentsline {table}{\numberline {1}{\ignorespaces Experimental results for flexural properties of CFRC-4HS and CFRC-TWILL composites. \\Span/depth ratio = 35:1. Average results of 7 specimens.}}{3}}
\newlabel{tab1}{{1}{3}}
\@writefile{toc}{\contentsline {section}{\numberline {3.\hskip -1ex}ACKNOWLEDGEMENTS}{3}}
\@writefile{toc}{\contentsline {section}{\numberline {4.\hskip -1ex}REFERENCES}{3}}
