\relax 
\citation{Needham1974}
\citation{Congreve1814,Bailey2004}
\citation{Seginer1983a}
\citation{Featherstone1960,Dahlke1973}
\citation{Dahlke1976,Dahlke1990}
\citation{Featherstone1960}
\citation{Dahlke1976}
\citation{Seginer1983a,Seginer1983}
\citation{Seginer1983a,Seginer1983}
\citation{Seginer1983a}
\babel@aux{english}{}
\@writefile{toc}{\contentsline {section}{\numberline {1.\hskip -1ex}INTRODUCTION}{1}}
\citation{Edge1994}
\citation{Edge1994}
\citation{Dahlke1976}
\citation{Edge1994}
\citation{Paek1999}
\citation{Edge1994}
\citation{Paek1999}
\citation{Dahlke1976}
\citation{Kim2012}
\citation{Li2015}
\citation{menter93,menter04}
\citation{Dahlke1976}
\citation{Paek1999}
\citation{Seginer1983a}
\citation{Seginer1983a}
\citation{Paek1999}
\citation{Li2015}
\@writefile{toc}{\contentsline {section}{\numberline {2.\hskip -1ex}METHODOLOGY}{2}}
\@writefile{lof}{\contentsline {figure}{\numberline {1}{\ignorespaces TTCP standard projectile geometry.}}{2}}
\newlabel{fig:TTCP}{{1}{2}}
\citation{Dahlke1976}
\citation{Paek1999}
\citation{Li2015}
\@writefile{lof}{\contentsline {figure}{\numberline {2}{\ignorespaces TTCP standard WAF geometry.}}{3}}
\newlabel{fig:WAF}{{2}{3}}
\@writefile{toc}{\contentsline {section}{\numberline {3.\hskip -1ex}COMPARATIVE STUDY}{3}}
\@writefile{lof}{\contentsline {figure}{\numberline {3}{\ignorespaces Roll moment coefficient vs Mach Number for experimental and numerical references.}}{3}}
\newlabel{fig:REF}{{3}{3}}
\@writefile{toc}{\contentsline {section}{\numberline {4.\hskip -1ex}ACKNOWLEDGEMENTS}{3}}
\bibstyle{abcm}
\bibdata{bibfile}
\bibcite{Bailey2004}{{1}{2004}{{Bailey}}{{}}}
\bibcite{Congreve1814}{{2}{1814}{{Congreve}}{{}}}
\bibcite{Dahlke1976}{{3}{1976}{{Dahlke}}{{}}}
\bibcite{Dahlke1990}{{4}{1990}{{Dahlke}}{{}}}
\bibcite{Dahlke1973}{{5}{1973}{{Dahlke and Craft}}{{}}}
\bibcite{Edge1994}{{6}{1994}{{Edge}}{{}}}
\bibcite{Featherstone1960}{{7}{1960}{{Featherstone}}{{}}}
\bibcite{Kim2012}{{8}{2012}{{Kim \emph  {et~al.}}}{{Kim, Cho, Lee, Na and Jung}}}
\bibcite{Li2015}{{9}{2015}{{Li \emph  {et~al.}}}{{Li, Abbas and Rui}}}
\bibcite{menter93}{{10}{1993}{{Menter}}{{}}}
\bibcite{menter04}{{11}{2004}{{Menter \emph  {et~al.}}}{{Menter, Langtry, Likki, Suzen, Huang and V{\"{o}}lker}}}
\bibcite{Needham1974}{{12}{1974}{{Needham}}{{}}}
\bibcite{Paek1999}{{13}{1999}{{Paek \emph  {et~al.}}}{{Paek, Park, Bae, Lee and Kwon}}}
\bibcite{Seginer1983a}{{14}{1983{a}}{{Seginer and Bar-Haim}}{{}}}
\bibcite{Seginer1983}{{15}{1983{b}}{{Seginer and Bar-Haim}}{{}}}
\@writefile{toc}{\contentsline {section}{\numberline {5.\hskip -1ex}REFERENCES}{4}}
